"lb";"up";"alpha";"K";"name";"t"
"1";-2.55497948260069;2.55497948260069;0.05;10;"PK";0.1
"2";-2.55497948260069;2.55497948260069;0.05;10;"PK";0.2
"3";-2.55497948260069;2.55497948260069;0.05;10;"PK";0.3
"4";-2.55497948260069;2.55497948260069;0.05;10;"PK";0.4
"5";-2.55497948260069;2.55497948260069;0.05;10;"PK";0.5
"6";-2.55497948260069;2.55497948260069;0.05;10;"PK";0.6
"7";-2.55497948260069;2.55497948260069;0.05;10;"PK";0.7
"8";-2.55497948260069;2.55497948260069;0.05;10;"PK";0.8
"9";-2.55497948260069;2.55497948260069;0.05;10;"PK";0.9
"10";-2.55497948260069;2.55497948260069;0.05;10;"PK";1
"11";-4.56169332580666;4.56169332580666;0.05;5;"OF";0.2
"21";-3.22560428437131;3.22560428437131;0.05;5;"OF";0.4
"31";-2.633694869615;2.633694869615;0.05;5;"OF";0.6
"41";-2.28084666290333;2.28084666290333;0.05;5;"OF";0.8
"51";-2.04005127380216;2.04005127380216;0.05;5;"OF";1
"12";-4.87688494877642;4.87688494877642;0.05;5;"1";0.2
"22";-3.35694629147284;3.35694629147284;0.05;5;"1";0.4
"32";-2.680258430255;2.680258430255;0.05;5;"1";0.6
"42";-2.28978867524403;2.28978867524403;0.05;5;"1";0.8
"52";-2.03099825278193;2.03099825278193;0.05;5;"1";1
"13";-6.9913409924252;6.9913409924252;0.05;10;"1";0.1
"23";-4.89890326578135;4.89890326578135;0.05;10;"1";0.2
"33";-3.93037700200299;3.93037700200299;0.05;10;"1";0.3
"43";-3.36712390932676;3.36712390932676;0.05;10;"1";0.4
"53";-2.98930260568229;2.98930260568229;0.05;10;"1";0.5
"61";-2.71477560774405;2.71477560774405;0.05;10;"1";0.6
"71";-2.50404713629669;2.50404713629669;0.05;10;"1";0.7
"81";-2.33579229759436;2.33579229759436;0.05;10;"1";0.8
"91";-2.19746268093945;2.19746268093945;0.05;10;"1";0.9
"101";-2.08112614349656;2.08112614349656;0.05;10;"1";1
"14";-5.69584370539494;5.69584370539494;0.1;10;"OF";0.1
"24";-4.02756970866347;4.02756970866347;0.1;10;"OF";0.2
"34";-3.2884968965718;3.2884968965718;0.1;10;"OF";0.3
"44";-2.84792185269747;2.84792185269747;0.1;10;"OF";0.4
"54";-2.54725874289547;2.54725874289547;0.1;10;"OF";0.5
"62";-2.32531845547684;2.32531845547684;0.1;10;"OF";0.6
"72";-2.15282656445252;2.15282656445252;0.1;10;"OF";0.7
"82";-2.01378485433174;2.01378485433174;0.1;10;"OF";0.8
"92";-1.89861456846498;1.89861456846498;0.1;10;"OF";0.9
"102";-1.80118393053811;1.80118393053811;0.1;10;"OF";1
"15";-2.37293540510402;2.37293540510402;0.1;2;"OF";0.5
"25";-1.6779187162667;1.6779187162667;0.1;2;"OF";1
"16";-3.91493781759926;3.91493781759926;0.1;5;"OF";0.2
"26";-2.7682790787481;2.7682790787481;0.1;5;"OF";0.4
"35";-2.26029040285158;2.26029040285158;0.1;5;"OF";0.6
"45";-1.95746890879963;1.95746890879963;0.1;5;"OF";0.8
"55";-1.75081341756732;1.75081341756732;0.1;5;"OF";1
"17";-2.12166938662495;2.12166938662495;0.1;5;"PK";0.2
"27";-2.12166938662495;2.12166938662495;0.1;5;"PK";0.4
"36";-2.12166938662495;2.12166938662495;0.1;5;"PK";0.6
"46";-2.12166938662495;2.12166938662495;0.1;5;"PK";0.8
"56";-2.12166938662495;2.12166938662495;0.1;5;"PK";1
"18";-2.26995542477493;2.26995542477493;0.1;10;"PK";0.1
"28";-2.26995542477493;2.26995542477493;0.1;10;"PK";0.2
"37";-2.26995542477493;2.26995542477493;0.1;10;"PK";0.3
"47";-2.26995542477493;2.26995542477493;0.1;10;"PK";0.4
"57";-2.26995542477493;2.26995542477493;0.1;10;"PK";0.5
"63";-2.26995542477493;2.26995542477493;0.1;10;"PK";0.6
"73";-2.26995542477493;2.26995542477493;0.1;10;"PK";0.7
"83";-2.26995542477493;2.26995542477493;0.1;10;"PK";0.8
"93";-2.26995542477493;2.26995542477493;0.1;10;"PK";0.9
"103";-2.26995542477493;2.26995542477493;0.1;10;"PK";1
"19";-6.59796874668262;6.59796874668262;0.05;10;"OF";0.1
"29";-4.66546844283619;4.66546844283619;0.05;10;"OF";0.2
"38";-3.80933903200195;3.80933903200195;0.05;10;"OF";0.3
"48";-3.29898437334131;3.29898437334131;0.05;10;"OF";0.4
"58";-2.95070132620029;2.95070132620029;0.05;10;"OF";0.5
"64";-2.69360946136718;2.69360946136718;0.05;10;"OF";0.6
"74";-2.49379778027125;2.49379778027125;0.05;10;"OF";0.7
"84";-2.33273422141809;2.33273422141809;0.05;10;"OF";0.8
"94";-2.19932291556087;2.19932291556087;0.05;10;"OF";0.9
"104";-2.08646091701236;2.08646091701236;0.05;10;"OF";1
