,name,alpha,K,n,power
0,PK,0.1,1,5,0.4674
1,PK,0.1,1,10,0.71985
2,PK,0.1,1,20,0.93825
3,PK,0.1,3,5,0.81105
4,PK,0.1,3,10,0.97355
5,PK,0.1,3,20,0.99995
6,PK,0.1,5,5,0.9442
7,PK,0.1,5,10,0.99885
8,PK,0.1,5,20,1.0
9,PK,0.1,7,5,0.9847
10,PK,0.1,7,10,0.9999
11,PK,0.1,7,20,1.0
12,PK,0.1,9,5,0.9958
13,PK,0.1,9,10,1.0
14,PK,0.1,9,20,1.0
15,PK,0.1,11,5,0.999
16,PK,0.1,11,10,1.0
17,PK,0.1,11,20,1.0
18,PK,0.1,13,5,0.99965
19,PK,0.1,13,10,1.0
20,PK,0.1,13,20,1.0
21,PK,0.1,15,5,0.99995
22,PK,0.1,15,10,1.0
23,PK,0.1,15,20,1.0
24,PK,0.1,17,5,1.0
25,PK,0.1,17,10,1.0
26,PK,0.1,17,20,1.0
27,PK,0.1,19,5,1.0
28,PK,0.1,19,10,1.0
29,PK,0.1,19,20,1.0
30,PK,0.05,1,5,0.36125
31,PK,0.05,1,10,0.61325
32,PK,0.05,1,20,0.88465
33,PK,0.05,3,5,0.7099
34,PK,0.05,3,10,0.9518
35,PK,0.05,3,20,0.99955
36,PK,0.05,5,5,0.89605
37,PK,0.05,5,10,0.9966
38,PK,0.05,5,20,1.0
39,PK,0.05,7,5,0.9683
40,PK,0.05,7,10,0.9998
41,PK,0.05,7,20,1.0
42,PK,0.05,9,5,0.99095
43,PK,0.05,9,10,1.0
44,PK,0.05,9,20,1.0
45,PK,0.05,11,5,0.99785
46,PK,0.05,11,10,1.0
47,PK,0.05,11,20,1.0
48,PK,0.05,13,5,0.99985
49,PK,0.05,13,10,1.0
50,PK,0.05,13,20,1.0
51,PK,0.05,15,5,0.99995
52,PK,0.05,15,10,1.0
53,PK,0.05,15,20,1.0
54,PK,0.05,17,5,1.0
55,PK,0.05,17,10,1.0
56,PK,0.05,17,20,1.0
57,PK,0.05,19,5,1.0
58,PK,0.05,19,10,1.0
59,PK,0.05,19,20,1.0
60,PK,0.025,1,5,0.2551
61,PK,0.025,1,10,0.49545
62,PK,0.025,1,20,0.82725
63,PK,0.025,3,5,0.6174
64,PK,0.025,3,10,0.91885
65,PK,0.025,3,20,0.99845
66,PK,0.025,5,5,0.83365
67,PK,0.025,5,10,0.9926
68,PK,0.025,5,20,1.0
69,PK,0.025,7,5,0.942
70,PK,0.025,7,10,0.9997
71,PK,0.025,7,20,1.0
72,PK,0.025,9,5,0.98255
73,PK,0.025,9,10,0.99985
74,PK,0.025,9,20,1.0
75,PK,0.025,11,5,0.9952
76,PK,0.025,11,10,1.0
77,PK,0.025,11,20,1.0
78,PK,0.025,13,5,0.99845
79,PK,0.025,13,10,1.0
80,PK,0.025,13,20,1.0
81,PK,0.025,15,5,0.99975
82,PK,0.025,15,10,1.0
83,PK,0.025,15,20,1.0
84,PK,0.025,17,5,0.99995
85,PK,0.025,17,10,1.0
86,PK,0.025,17,20,1.0
87,PK,0.025,19,5,1.0
88,PK,0.025,19,10,1.0
89,PK,0.025,19,20,1.0
90,PK,0.02,1,5,0.23195
91,PK,0.02,1,10,0.4584
92,PK,0.02,1,20,0.7946
93,PK,0.02,3,5,0.58135
94,PK,0.02,3,10,0.90695
95,PK,0.02,3,20,0.99815
96,PK,0.02,5,5,0.82155
97,PK,0.02,5,10,0.98985
98,PK,0.02,5,20,1.0
99,PK,0.02,7,5,0.93075
100,PK,0.02,7,10,0.9992
101,PK,0.02,7,20,1.0
102,PK,0.02,9,5,0.97645
103,PK,0.02,9,10,0.99995
104,PK,0.02,9,20,1.0
105,PK,0.02,11,5,0.9931
106,PK,0.02,11,10,1.0
107,PK,0.02,11,20,1.0
108,PK,0.02,13,5,0.9979
109,PK,0.02,13,10,1.0
110,PK,0.02,13,20,1.0
111,PK,0.02,15,5,0.9995
112,PK,0.02,15,10,1.0
113,PK,0.02,15,20,1.0
114,PK,0.02,17,5,0.9999
115,PK,0.02,17,10,1.0
116,PK,0.02,17,20,1.0
117,PK,0.02,19,5,1.0
118,PK,0.02,19,10,1.0
119,PK,0.02,19,20,1.0
120,PK,0.01,1,5,0.16085
121,PK,0.01,1,10,0.3686
122,PK,0.01,1,20,0.71905
123,PK,0.01,3,5,0.4804
124,PK,0.01,3,10,0.8575
125,PK,0.01,3,20,0.99565
126,PK,0.01,5,5,0.7477
127,PK,0.01,5,10,0.98105
128,PK,0.01,5,20,1.0
129,PK,0.01,7,5,0.8978
130,PK,0.01,7,10,0.9987
131,PK,0.01,7,20,1.0
132,PK,0.01,9,5,0.96185
133,PK,0.01,9,10,1.0
134,PK,0.01,9,20,1.0
135,PK,0.01,11,5,0.98695
136,PK,0.01,11,10,1.0
137,PK,0.01,11,20,1.0
138,PK,0.01,13,5,0.99615
139,PK,0.01,13,10,1.0
140,PK,0.01,13,20,1.0
141,PK,0.01,15,5,0.99845
142,PK,0.01,15,10,1.0
143,PK,0.01,15,20,1.0
144,PK,0.01,17,5,0.9997
145,PK,0.01,17,10,1.0
146,PK,0.01,17,20,1.0
147,PK,0.01,19,5,1.0
148,PK,0.01,19,10,1.0
149,PK,0.01,19,20,1.0
150,PK,0.001,1,5,0.04615
151,PK,0.001,1,10,0.14585
152,PK,0.001,1,20,0.4524
153,PK,0.001,3,5,0.22725
154,PK,0.001,3,10,0.6435
155,PK,0.001,3,20,0.9755
156,PK,0.001,5,5,0.4816
157,PK,0.001,5,10,0.91965
158,PK,0.001,5,20,0.9998
159,PK,0.001,7,5,0.71215
160,PK,0.001,7,10,0.98785
161,PK,0.001,7,20,1.0
162,PK,0.001,9,5,0.85385
163,PK,0.001,9,10,0.99885
164,PK,0.001,9,20,1.0
165,PK,0.001,11,5,0.9382
166,PK,0.001,11,10,0.9999
167,PK,0.001,11,20,1.0
168,PK,0.001,13,5,0.97805
169,PK,0.001,13,10,1.0
170,PK,0.001,13,20,1.0
171,PK,0.001,15,5,0.99085
172,PK,0.001,15,10,1.0
173,PK,0.001,15,20,1.0
174,PK,0.001,17,5,0.99725
175,PK,0.001,17,10,1.0
176,PK,0.001,17,20,1.0
177,PK,0.001,19,5,0.99925
178,PK,0.001,19,10,1.0
179,PK,0.001,19,20,1.0
180,OF,0.1,1,5,0.4728
181,OF,0.1,1,10,0.7193
182,OF,0.1,1,20,0.9361
183,OF,0.1,3,5,0.85725
184,OF,0.1,3,10,0.9862
185,OF,0.1,3,20,0.9999
186,OF,0.1,5,5,0.96595
187,OF,0.1,5,10,0.9996
188,OF,0.1,5,20,1.0
189,OF,0.1,7,5,0.9942
190,OF,0.1,7,10,1.0
191,OF,0.1,7,20,1.0
192,OF,0.1,9,5,0.9987
193,OF,0.1,9,10,1.0
194,OF,0.1,9,20,1.0
195,OF,0.1,11,5,0.99985
196,OF,0.1,11,10,1.0
197,OF,0.1,11,20,1.0
198,OF,0.1,13,5,1.0
199,OF,0.1,13,10,1.0
200,OF,0.1,13,20,1.0
201,OF,0.1,15,5,0.9999
202,OF,0.1,15,10,1.0
203,OF,0.1,15,20,1.0
204,OF,0.1,17,5,1.0
205,OF,0.1,17,10,1.0
206,OF,0.1,17,20,1.0
207,OF,0.1,19,5,1.0
208,OF,0.1,19,10,1.0
209,OF,0.1,19,20,1.0
210,OF,0.05,1,5,0.35365
211,OF,0.05,1,10,0.60555
212,OF,0.05,1,20,0.88535
213,OF,0.05,3,5,0.7783
214,OF,0.05,3,10,0.97095
215,OF,0.05,3,20,0.9999
216,OF,0.05,5,5,0.9401
217,OF,0.05,5,10,0.99875
218,OF,0.05,5,20,1.0
219,OF,0.05,7,5,0.98495
220,OF,0.05,7,10,0.99995
221,OF,0.05,7,20,1.0
222,OF,0.05,9,5,0.9968
223,OF,0.05,9,10,1.0
224,OF,0.05,9,20,1.0
225,OF,0.05,11,5,0.99925
226,OF,0.05,11,10,1.0
227,OF,0.05,11,20,1.0
228,OF,0.05,13,5,0.9999
229,OF,0.05,13,10,1.0
230,OF,0.05,13,20,1.0
231,OF,0.05,15,5,1.0
232,OF,0.05,15,10,1.0
233,OF,0.05,15,20,1.0
234,OF,0.05,17,5,1.0
235,OF,0.05,17,10,1.0
236,OF,0.05,17,20,1.0
237,OF,0.05,19,5,1.0
238,OF,0.05,19,10,1.0
239,OF,0.05,19,20,1.0
240,OF,0.025,1,5,0.25425
241,OF,0.025,1,10,0.4958
242,OF,0.025,1,20,0.82035
243,OF,0.025,3,5,0.685
244,OF,0.025,3,10,0.945
245,OF,0.025,3,20,0.9994
246,OF,0.025,5,5,0.89585
247,OF,0.025,5,10,0.99705
248,OF,0.025,5,20,1.0
249,OF,0.025,7,5,0.97015
250,OF,0.025,7,10,0.9999
251,OF,0.025,7,20,1.0
252,OF,0.025,9,5,0.9929
253,OF,0.025,9,10,1.0
254,OF,0.025,9,20,1.0
255,OF,0.025,11,5,0.99845
256,OF,0.025,11,10,1.0
257,OF,0.025,11,20,1.0
258,OF,0.025,13,5,0.9996
259,OF,0.025,13,10,1.0
260,OF,0.025,13,20,1.0
261,OF,0.025,15,5,0.9999
262,OF,0.025,15,10,1.0
263,OF,0.025,15,20,1.0
264,OF,0.025,17,5,1.0
265,OF,0.025,17,10,1.0
266,OF,0.025,17,20,1.0
267,OF,0.025,19,5,1.0
268,OF,0.025,19,10,1.0
269,OF,0.025,19,20,1.0
270,OF,0.02,1,5,0.23185
271,OF,0.02,1,10,0.466
272,OF,0.02,1,20,0.7984
273,OF,0.02,3,5,0.651
274,OF,0.02,3,10,0.93675
275,OF,0.02,3,20,0.99945
276,OF,0.02,5,5,0.8797
277,OF,0.02,5,10,0.99585
278,OF,0.02,5,20,1.0
279,OF,0.02,7,5,0.96215
280,OF,0.02,7,10,0.9998
281,OF,0.02,7,20,1.0
282,OF,0.02,9,5,0.9924
283,OF,0.02,9,10,1.0
284,OF,0.02,9,20,1.0
285,OF,0.02,11,5,0.99805
286,OF,0.02,11,10,1.0
287,OF,0.02,11,20,1.0
288,OF,0.02,13,5,0.9996
289,OF,0.02,13,10,1.0
290,OF,0.02,13,20,1.0
291,OF,0.02,15,5,0.99995
292,OF,0.02,15,10,1.0
293,OF,0.02,15,20,1.0
294,OF,0.02,17,5,0.99995
295,OF,0.02,17,10,1.0
296,OF,0.02,17,20,1.0
297,OF,0.02,19,5,1.0
298,OF,0.02,19,10,1.0
299,OF,0.02,19,20,1.0
300,OF,0.01,1,5,0.15865
301,OF,0.01,1,10,0.3649
302,OF,0.01,1,20,0.72075
303,OF,0.01,3,5,0.56355
304,OF,0.01,3,10,0.9011
305,OF,0.01,3,20,0.99825
306,OF,0.01,5,5,0.82525
307,OF,0.01,5,10,0.9923
308,OF,0.01,5,20,1.0
309,OF,0.01,7,5,0.94175
310,OF,0.01,7,10,0.9996
311,OF,0.01,7,20,1.0
312,OF,0.01,9,5,0.98285
313,OF,0.01,9,10,0.99995
314,OF,0.01,9,20,1.0
315,OF,0.01,11,5,0.9953
316,OF,0.01,11,10,1.0
317,OF,0.01,11,20,1.0
318,OF,0.01,13,5,0.9989
319,OF,0.01,13,10,1.0
320,OF,0.01,13,20,1.0
321,OF,0.01,15,5,0.99965
322,OF,0.01,15,10,1.0
323,OF,0.01,15,20,1.0
324,OF,0.01,17,5,0.99995
325,OF,0.01,17,10,1.0
326,OF,0.01,17,20,1.0
327,OF,0.01,19,5,1.0
328,OF,0.01,19,10,1.0
329,OF,0.01,19,20,1.0
330,OF,0.001,1,5,0.0411
331,OF,0.001,1,10,0.14805
332,OF,0.001,1,20,0.449
333,OF,0.001,3,5,0.2941
334,OF,0.001,3,10,0.7196
335,OF,0.001,3,20,0.9839
336,OF,0.001,5,5,0.59005
337,OF,0.001,5,10,0.9549
338,OF,0.001,5,20,0.9998
339,OF,0.001,7,5,0.81205
340,OF,0.001,7,10,0.99535
341,OF,0.001,7,20,1.0
342,OF,0.001,9,5,0.92105
343,OF,0.001,9,10,0.99975
344,OF,0.001,9,20,1.0
345,OF,0.001,11,5,0.97335
346,OF,0.001,11,10,1.0
347,OF,0.001,11,20,1.0
348,OF,0.001,13,5,0.9913
349,OF,0.001,13,10,1.0
350,OF,0.001,13,20,1.0
351,OF,0.001,15,5,0.9977
352,OF,0.001,15,10,1.0
353,OF,0.001,15,20,1.0
354,OF,0.001,17,5,0.9994
355,OF,0.001,17,10,1.0
356,OF,0.001,17,20,1.0
357,OF,0.001,19,5,0.9999
358,OF,0.001,19,10,1.0
359,OF,0.001,19,20,1.0
